887985 723680 525
437673 846314 525
594290 230446 470
669483 920115 525
680747 311774 509
92967 357783 443
658952 78022 509
216570 110704 386
393750 305631 441
443643 983144 525
849307 845172 419
251078 639106 509
918509 320248 525
9156 851231 525
703693 994629 525
516661 168161 470
680771 970129 525
130959 229171 386
44892 977744 525
119260 691885 509
574725 405169 470
934056 175766 525
679087 348317 509
793435 383981 509
442954 376206 449
823914 983328 525
117749 43492 354
137998 491712 449
696811 452313 509
682966 888201 525
961063 525819 525
17280 710282 509
856789 519395 525
485160 383528 449
114933 49189 354
246888 989788 525
418154 691589 509
914380 257304 525
17654 743758 509
611133 457470 470
433896 705464 509
434383 916826 525
412673 693854 509
612926 220304 470
562102 989250 525
468060 416037 444
924206 443439 525
382080 241852 441
604489 152492 470
52777 718347 509
806322 442824 509
386602 702370 509
29231 608478 470
922175 614069 525
805729 124878 509
895147 477089 525
596307 46791 470
772903 335948 509
192829 804118 509
239127 41262 443
257805 705475 509
49750 521207 470
351660 180953 443
480563 603502 470
602243 880516 525
461794 729397 509
441005 278772 449
899109 303261 525
601341 11869 470
224188 978783 525
19634 987655 525
303999 944533 525
24286 931729 525
314799 250765 407
493729 20265 449
437557 326736 449
489599 771008 509
714913 876020 525
553089 601976 434
227664 176704 386
265693 32470 443
197881 600369 470
757338 87288 509
980000 352181 525
560515 541925 452
949622 218134 525
806350 995865 525
697860 551040 509
111735 70450 354
47246 329800 443
186877 537006 470
900588 91477 525
353925 926108 525
178254 198482 365
265823 685001 509
751274 799568 468
153817 26344 375
397319 818246 509
52674 552863 470
80508 729887 509
126686 961076 525
773975 545716 509
479055 562929 470
397513 517030 470
988606 98567 525
60693 986203 525
864773 88102 525
438360 552970 470
452746 499138 444
197333 74133 383
377021 268770 441
27961 962557 525
328943 572891 470
918370 878861 476
32021 418331 449
594728 116211 470
909203 869239 445
36058 469240 449
63421 175645 383
977448 368293 525
366921 979204 525
541740 878926 525
847361 298641 525
554285 27618 470
352275 753056 509
416746 873155 525
681025 99719 509
84681 704708 509
448206 278373 449
554079 423547 470
555254 601937 434
739887 944393 525
801808 543349 509
438395 805036 509
574506 635023 509
51598 624760 470
411597 31540 449
24083 493572 449
221990 739604 509
582833 49340 470
12205 131959 354
705907 307459 509
564497 873856 525
258690 428095 449
561162 351589 470
263983 154982 443
44590 974950 525
451052 828872 509
977957 536901 525
301948 402930 441
148462 787295 509
